.Xil/Vivado-14688-PHSX-82QWMN2/hw_ila_data_1/zip_work/waveform.vcd
$date
        2018-May-11 17:43:49
$end
$version
        Vivado v2018.1 (64-bit)
$end
$timescale
        1ps
$end
$scope module dut $end
$var reg 1 " design_1_i/xlslice_bit0_Dout $end
$var reg 1 # design_1_i/xlslice_bit1_Dout $end
$var reg 1 $ design_1_i/hier_0_test $end
$var reg 1 % design_1_i/hier_0_dout_mem $end
$var reg 1 & design_1_i/hier_0_dout_fifo $end
$var reg 10 ' design_1_i/New_cdr_A_dout10b [9:0] $end
$var reg 2 1 design_1_i/dv_1 [1:0] $end
$var reg 2 3 design_1_i/d_in_1 [1:0] $end
$var reg 14 5 design_1_i/hier_0_address [13:0] $end
$var reg 14 C design_1_i/address_counter_0_address [13:0] $end
$var reg 32 Q design_1_i/h_bert_Q [31:0] $end
$var reg 1 q _TRIGGER $end
$var reg 1 r _WINDOW $end
$var reg 1 s _GAP $end
$upscope $end
$enddefinitions $end
#0
$dumpvars
0"
0#
1$
1%
0&
b1111111111 '
b11 1
b11 3
b11000010000001 5
b0 C
b10000010011101 Q
0q
1r
0s
$end
#1
0%
b1 3
b11000010000010 5
b10000010011110 Q
#2
1&
b11000010000011 5
b10000010011111 Q
#3
1%
0&
b11000010000100 5
#4
0%
1&
b11000010000101 5
b10000010100000 Q
#5
1%
b11000010000110 5
b10000010100001 Q
#6
b11000010000111 5
b10000010100010 Q
#7
b11000010001000 5
#8
0&
b11000010001001 5
#9
0%
1&
b11000010001010 5
#10
1%
0&
b0 1
b0 3
b11000010001011 5
b10000010100011 Q
#11
0%
1&
b11 1
b1 3
b11000010001100 5
b10000010100100 Q
#12
1%
0&
b11000010001101 5
b10000010100101 Q
#13
0%
b11000010001110 5
b10000010100110 Q
#14
b11000010001111 5
b10000010100111 Q
#15
1&
b11000010010000 5
#16
1%
0&
b11000010010001 5
#17
0%
1&
b11000010010010 5
b10000010101000 Q
#18
1%
b11000010010011 5
b10000010101001 Q
#19
b11000010010100 5
b10000010101010 Q
#20
0&
b11 3
b11000010010101 5
#21
0%
b1 3
b11000010010110 5
#22
1&
b11000010010111 5
b10000010101011 Q
#23
1%
0&
b11000010011000 5
#24
0%
1&
b11000010011001 5
b10000010101100 Q
#25
1%
b11000010011010 5
b10000010101101 Q
#26
b11000010011011 5
b10000010101110 Q
#27
0&
b11000010011100 5
#28
0%
1&
b11000010011101 5
#29
1%
0&
b11000010011110 5
b10000010101111 Q
#30
0%
1&
b0 1
b0 3
b11000010011111 5
b10000010110000 Q
#31
1%
b11 1
b1 3
b11000010100000 5
b10000010110001 Q
#32
b11000010100001 5
b10000010110010 Q
#33
b11000010100010 5
#34
0&
b11000010100011 5
#35
0%
1&
b11000010100100 5
#36
1%
0&
b11000010100101 5
b10000010110011 Q
#37
0%
1&
b11000010100110 5
b10000010110100 Q
#38
1%
0&
b11000010100111 5
b10000010110101 Q
#39
0%
1&
b11000010101000 5
b10000010110110 Q
#40
1%
b11 3
b11000010101001 5
b10000010110111 Q
#41
0&
b1 3
b11000010101010 5
b10000010111000 Q
#42
0%
1&
b11000010101011 5
#43
1%
b11000010101100 5
b10000010111001 Q
#44
0&
b11000010101101 5
b10000010111010 Q
#45
0%
1&
b11000010101110 5
#46
1%
b11000010101111 5
b10000010111011 Q
#47
b11000010110000 5
b10000010111100 Q
#48
b11000010110001 5
#49
b11000010110010 5
#50
b0 1
b0 3
b11000010110011 5
#51
0&
b11 1
b1 3
b11000010110100 5
#52
0%
1&
b11000010110101 5
#53
1%
0&
b11000010110110 5
b10000010111101 Q
#54
0%
1&
b11000010110111 5
b10000010111110 Q
#55
1%
b11000010111000 5
b10000010111111 Q
#56
0&
b11000010111001 5
b10000011000000 Q
#57
0%
1&
b11000010111010 5
#58
1%
b11000010111011 5
b10000011000001 Q
#59
b11000010111100 5
b10000011000010 Q
#60
b11 3
b11000010111101 5
#61
0&
b1 3
b11000010111110 5
#62
0%
1&
b11000010111111 5
#63
1%
0&
b11000011000000 5
b10000011000011 Q
#64
0%
1&
b11000011000001 5
b10000011000100 Q
#65
1%
b11000011000010 5
b10000011000101 Q
#66
0&
b11000011000011 5
b10000011000110 Q
#67
0%
1&
b11000011000100 5
#68
1%
b11000011000101 5
b10000011000111 Q
#69
b11000011000110 5
b10000011001000 Q
#70
b0 1
b0 3
b11000011000111 5
#71
b11 1
b1 3
b11000011001000 5
#72
0&
b11000011001001 5
#73
0%
b11000011001010 5
#74
b11000011001011 5
b10000011001001 Q
#75
1&
b11000011001100 5
#76
1%
0&
b11000011001101 5
#77
0%
1&
b11000011001110 5
b10000011001010 Q
#78
1%
0&
b11000011001111 5
b10000011001011 Q
#79
0%
1&
b11000011010000 5
b10000011001100 Q
#80
1%
0&
b11 3
b11000011010001 5
b10000011001101 Q
#81
0%
b1 3
b11000011010010 5
b10000011001110 Q
#82
b11000011010011 5
b10000011001111 Q
#83
b11000011010100 5
#84
b11000011010101 5
#85
1&
b11000011010110 5
#86
1%
0&
b11000011010111 5
#87
0%
1&
b11000011011000 5
b10000011010000 Q
#88
1%
b11000011011001 5
b10000011010001 Q
#89
0&
b11000011011010 5
b10000011010010 Q
#90
0%
1&
b0 1
b0 3
b11000011011011 5
#91
1%
b11 1
b1 3
b11000011011100 5
b10000011010011 Q
#92
b11000011011101 5
b10000011010100 Q
#93
b11000011011110 5
#94
0&
b11000011011111 5
#95
0%
1&
b11000011100000 5
#96
1%
0&
b11000011100001 5
b10000011010101 Q
#97
0%
1&
b11000011100010 5
b10000011010110 Q
#98
1%
0&
b11000011100011 5
b10000011010111 Q
#99
0%
b11000011100100 5
b10000011011000 Q
#100
1&
b11 3
b11000011100101 5
b10000011011001 Q
#101
1%
0&
b1 3
b11000011100110 5
#102
0%
1&
b11000011100111 5
b10000011011010 Q
#103
1%
b11000011101000 5
b10000011011011 Q
#104
b11000011101001 5
b10000011011100 Q
#105
b11000011101010 5
#106
b11000011101011 5
#107
0&
b11000011101100 5
#108
0%
1&
b11000011101101 5
#109
1%
0&
b11000011101110 5
b10000011011101 Q
#110
0%
1&
b0 1
b0 3
b11000011101111 5
b10000011011110 Q
#111
1%
0&
b11 1
b1 3
b11000011110000 5
b10000011011111 Q
#112
0%
1&
b11000011110001 5
b10000011100000 Q
#113
1%
b11000011110010 5
b10000011100001 Q
#114
b11000011110011 5
b10000011100010 Q
#115
0&
b11000011110100 5
#116
0%
b11000011110101 5
#117
1&
b11000011110110 5
b10000011100011 Q
#118
1%
b11000011110111 5
#119
b11000011111000 5
b10000011100100 Q
#120
b11 3
b11000011111001 5
#121
0&
b1 3
b11000011111010 5
#122
0%
1&
b11000011111011 5
#123
1%
0&
b11000011111100 5
b10000011100101 Q
#124
0%
1&
b11000011111101 5
b10000011100110 Q
#125
1%
b11000011111110 5
b10000011100111 Q
#126
0&
b11000011111111 5
b10000011101000 Q
#127
0%
1&
b11000100000000 5
#128
1%
b11000100000001 5
b10000011101001 Q
#129
b11000100000010 5
b10000011101010 Q
#130
0&
b0 1
b0 3
b11000100000011 5
#131
0%
1&
b11 1
b1 3
b11000100000100 5
#132
1%
0&
b11000100000101 5
b10000011101011 Q
#133
0%
1&
b11000100000110 5
b10000011101100 Q
#134
1%
0&
b11000100000111 5
b10000011101101 Q
#135
0%
1&
b11000100001000 5
b10000011101110 Q
#136
1%
0&
b11000100001001 5
b10000011101111 Q
#137
0%
1&
b11000100001010 5
b10000011110000 Q
#138
1%
0&
b11000100001011 5
b10000011110001 Q
#139
0%
1&
b11000100001100 5
b10000011110010 Q
#140
1%
0&
b11 3
b11000100001101 5
b10000011110011 Q
#141
0%
b1 3
b11000100001110 5
b10000011110100 Q
#142
1&
b11000100001111 5
b10000011110101 Q
#143
1%
0&
b11000100010000 5
#144
0%
1&
b11000100010001 5
b10000011110110 Q
#145
1%
b11000100010010 5
b10000011110111 Q
#146
b11000100010011 5
b10000011111000 Q
#147
0&
b11000100010100 5
#148
0%
1&
b11000100010101 5
#149
1%
0&
b11000100010110 5
b10000011111001 Q
#150
0%
1&
b0 1
b0 3
b11000100010111 5
b10000011111010 Q
#151
1%
0&
b11 1
b1 3
b11000100011000 5
b10000011111011 Q
#152
0%
1&
b11000100011001 5
b10000011111100 Q
#153
1%
b11000100011010 5
b10000011111101 Q
#154
b11000100011011 5
b10000011111110 Q
#155
b11000100011100 5
#156
0&
b11000100011101 5
#157
0%
1&
b11000100011110 5
#158
1%
b11000100011111 5
b10000011111111 Q
#159
0&
b11000100100000 5
b10000100000000 Q
#160
0%
1&
b11 3
b11000100100001 5
#161
1%
0&
b1 3
b11000100100010 5
b10000100000001 Q
#162
0%
1&
b11000100100011 5
b10000100000010 Q
#163
1%
b11000100100100 5
b10000100000011 Q
#164
0&
b11000100100101 5
b10000100000100 Q
#165
0%
1&
b11000100100110 5
#166
1%
0&
b11000100100111 5
b10000100000101 Q
#167
0%
1&
b11000100101000 5
b10000100000110 Q
#168
1%
0&
b11000100101001 5
b10000100000111 Q
#169
0%
1&
b11000100101010 5
b10000100001000 Q
#170
1%
b0 1
b0 3
b11000100101011 5
b10000100001001 Q
#171
0&
b11 1
b1 3
b11000100101100 5
b10000100001010 Q
#172
0%
1&
b11000100101101 5
#173
1%
b11000100101110 5
b10000100001011 Q
#174
b11000100101111 5
b10000100001100 Q
#175
0&
b11000100110000 5
#176
0%
b11000100110001 5
#177
b11000100110010 5
b10000100001101 Q
#178
b11000100110011 5
#179
1&
b11000100110100 5
#180
1%
b11 3
b11000100110101 5
#181
b1 3
b11000100110110 5
b10000100001110 Q
#182
0&
b11000100110111 5
#183
0%
1&
b11000100111000 5
#184
1%
b11000100111001 5
b10000100001111 Q
#185
0&
b11000100111010 5
b10000100010000 Q
#186
0%
1&
b11000100111011 5
#187
1%
b11000100111100 5
b10000100010001 Q
#188
b11000100111101 5
b10000100010010 Q
#189
b11000100111110 5
#190
b0 1
b0 3
b11000100111111 5
#191
b11 1
b1 3
b11000101000000 5
#192
0&
b11000101000001 5
#193
0%
b11000101000010 5
#194
b11000101000011 5
b10000100010011 Q
#195
1&
b11000101000100 5
#196
1%
0&
b11000101000101 5
#197
0%
b11000101000110 5
b10000100010100 Q
#198
1&
b11000101000111 5
b10000100010101 Q
#199
1%
b11000101001000 5
#200
b11 3
b11000101001001 5
b10000100010110 Q
#201
0&
b1 3
b11000101001010 5
#202
0%
1&
b11000101001011 5
#203
1%
b11000101001100 5
b10000100010111 Q
#204
b11000101001101 5
b10000100011000 Q
#205
0&
b11000101001110 5
#206
0%
b11000101001111 5
#207
b11000101010000 5
b10000100011001 Q
#208
b11000101010001 5
#209
1&
b11000101010010 5
#210
1%
0&
b0 1
b0 3
b11000101010011 5
#211
0%
b11 1
b1 3
b11000101010100 5
b10000100011010 Q
#212
b11000101010101 5
b10000100011011 Q
#213
b11000101010110 5
#214
1&
b11000101010111 5
#215
1%
0&
b11000101011000 5
#216
0%
b11000101011001 5
b10000100011100 Q
#217
b11000101011010 5
b10000100011101 Q
#218
b11000101011011 5
#219
1&
b11000101011100 5
#220
1%
0&
b11 3
b11000101011101 5
#221
0%
b1 3
b11000101011110 5
b10000100011110 Q
#222
b11000101011111 5
b10000100011111 Q
#223
b11000101100000 5
#224
b11000101100001 5
#225
1&
b11000101100010 5
#226
1%
b11000101100011 5
#227
b11000101100100 5
b10000100100000 Q
#228
b11000101100101 5
#229
0&
b11000101100110 5
#230
0%
1&
b0 1
b0 3
b11000101100111 5
#231
1%
0&
b11 1
b1 3
b11000101101000 5
b10000100100001 Q
#232
0%
b11000101101001 5
b10000100100010 Q
#233
1&
b11000101101010 5
b10000100100011 Q
#234
1%
0&
b11000101101011 5
#235
0%
1&
b11000101101100 5
b10000100100100 Q
#236
1%
0&
b11000101101101 5
b10000100100101 Q
#237
0%
1&
b11000101101110 5
b10000100100110 Q
#238
1%
b11000101101111 5
b10000100100111 Q
#239
0&
b11000101110000 5
b10000100101000 Q
#240
0%
1&
b11 3
b11000101110001 5
#241
1%
0&
b1 3
b11000101110010 5
b10000100101001 Q
#242
0%
b11000101110011 5
b10000100101010 Q
#243
1&
b11000101110100 5
b10000100101011 Q
#244
1%
0&
b11000101110101 5
#245
0%
1&
b11000101110110 5
b10000100101100 Q
#246
1%
0&
b11000101110111 5
b10000100101101 Q
#247
0%
1&
b11000101111000 5
b10000100101110 Q
#248
1%
b11000101111001 5
b10000100101111 Q
#249
0&
b11000101111010 5
b10000100110000 Q
#250
0%
1&
b0 1
b0 3
b11000101111011 5
#251
1%
0&
b11 1
b1 3
b11000101111100 5
b10000100110001 Q
#252
0%
1&
b11000101111101 5
b10000100110010 Q
#253
1%
0&
b11000101111110 5
b10000100110011 Q
#254
0%
b11000101111111 5
b10000100110100 Q
#255
1&
b11000110000000 5
b10000100110101 Q
#256
1%
0&
b11000110000001 5
#257
0%
b11000110000010 5
b10000100110110 Q
#258
1&
b11000110000011 5
b10000100110111 Q
#259
1%
0&
b11000110000100 5
#260
0%
1&
b11 3
b11000110000101 5
b10000100111000 Q
#261
1%
0&
b1 3
b11000110000110 5
b10000100111001 Q
#262
0%
b11000110000111 5
b10000100111010 Q
#263
1&
b11000110001000 5
b10000100111011 Q
#264
1%
0&
b11000110001001 5
#265
0%
1&
b11000110001010 5
b10000100111100 Q
#266
1%
0&
b11000110001011 5
b10000100111101 Q
#267
0%
1&
b11000110001100 5
b10000100111110 Q
#268
1%
b11000110001101 5
b10000100111111 Q
#269
0&
b11000110001110 5
b10000101000000 Q
#270
0%
1&
b0 1
b0 3
b11000110001111 5
#271
1%
0&
b11 1
b1 3
b11000110010000 5
b10000101000001 Q
#272
0%
1&
b11000110010001 5
b10000101000010 Q
#273
1%
b11000110010010 5
b10000101000011 Q
#274
0&
b11000110010011 5
b10000101000100 Q
#275
0%
1&
b11000110010100 5
#276
1%
0&
b11000110010101 5
b10000101000101 Q
#277
0%
b11000110010110 5
b10000101000110 Q
#278
1&
b11000110010111 5
b10000101000111 Q
#279
1%
b11000110011000 5
#280
b11 3
b11000110011001 5
b10000101001000 Q
#281
b1 3
b11000110011010 5
#282
b11000110011011 5
#283
0&
b11000110011100 5
#284
0%
b11000110011101 5
#285
1&
b11000110011110 5
b10000101001001 Q
#286
1%
0&
b11000110011111 5
#287
0%
1&
b11000110100000 5
b10000101001010 Q
#288
1%
0&
b11000110100001 5
b10000101001011 Q
#289
0%
b11000110100010 5
b10000101001100 Q
#290
1&
b0 1
b0 3
b11000110100011 5
b10000101001101 Q
#291
1%
0&
b11 1
b1 3
b11000110100100 5
#292
0%
1&
b11000110100101 5
b10000101001110 Q
#293
1%
b11000110100110 5
b10000101001111 Q
#294
0&
b11000110100111 5
b10000101010000 Q
#295
0%
1&
b11000110101000 5
#296
1%
0&
b11000110101001 5
b10000101010001 Q
#297
0%
1&
b11000110101010 5
b10000101010010 Q
#298
1%
b11000110101011 5
b10000101010011 Q
#299
0&
b11000110101100 5
b10000101010100 Q
#300
0%
1&
b11 3
b11000110101101 5
#301
1%
0&
b1 3
b11000110101110 5
b10000101010101 Q
#302
0%
b11000110101111 5
b10000101010110 Q
#303
1&
b11000110110000 5
b10000101010111 Q
#304
1%
0&
b11000110110001 5
#305
0%
1&
b11000110110010 5
b10000101011000 Q
#306
1%
0&
b11000110110011 5
b10000101011001 Q
#307
0%
1&
b11000110110100 5
b10000101011010 Q
#308
1%
b11000110110101 5
b10000101011011 Q
#309
0&
b11000110110110 5
b10000101011100 Q
#310
0%
1&
b0 1
b0 3
b11000110110111 5
#311
1%
0&
b11 1
b1 3
b11000110111000 5
b10000101011101 Q
#312
0%
1&
b11000110111001 5
b10000101011110 Q
#313
1%
0&
b11000110111010 5
b10000101011111 Q
#314
0%
b11000110111011 5
b10000101100000 Q
#315
1&
b11000110111100 5
b10000101100001 Q
#316
1%
0&
b11000110111101 5
#317
0%
b11000110111110 5
b10000101100010 Q
#318
1&
b11000110111111 5
b10000101100011 Q
#319
1%
0&
b11000111000000 5
#320
0%
1&
b11 3
b11000111000001 5
b10000101100100 Q
#321
1%
0&
b1 3
b11000111000010 5
b10000101100101 Q
#322
0%
1&
b11000111000011 5
b10000101100110 Q
#323
1%
0&
b11000111000100 5
b10000101100111 Q
#324
0%
b11000111000101 5
b10000101101000 Q
#325
1&
b11000111000110 5
b10000101101001 Q
#326
1%
0&
b11000111000111 5
#327
0%
1&
b11000111001000 5
b10000101101010 Q
#328
1%
b11000111001001 5
b10000101101011 Q
#329
0&
b11000111001010 5
b10000101101100 Q
#330
0%
1&
b0 1
b0 3
b11000111001011 5
#331
1%
0&
b11 1
b1 3
b11000111001100 5
b10000101101101 Q
#332
0%
1&
b11000111001101 5
b10000101101110 Q
#333
1%
0&
b11000111001110 5
b10000101101111 Q
#334
0%
b11000111001111 5
b10000101110000 Q
#335
1&
b11000111010000 5
b10000101110001 Q
#336
1%
0&
b11000111010001 5
#337
0%
b11000111010010 5
b10000101110010 Q
#338
1&
b11000111010011 5
b10000101110011 Q
#339
1%
0&
b11000111010100 5
#340
0%
1&
b11 3
b11000111010101 5
b10000101110100 Q
#341
1%
0&
b1 3
b11000111010110 5
b10000101110101 Q
#342
0%
1&
b11000111010111 5
b10000101110110 Q
#343
1%
b11000111011000 5
b10000101110111 Q
#344
0&
b11000111011001 5
b10000101111000 Q
#345
0%
1&
b11000111011010 5
#346
1%
0&
b11000111011011 5
b10000101111001 Q
#347
0%
1&
b11000111011100 5
b10000101111010 Q
#348
1%
b11000111011101 5
b10000101111011 Q
#349
0&
b11000111011110 5
b10000101111100 Q
#350
0%
1&
b0 1
b0 3
b11000111011111 5
#351
1%
0&
b11 1
b1 3
b11000111100000 5
b10000101111101 Q
#352
0%
b11000111100001 5
b10000101111110 Q
#353
1&
b11000111100010 5
b10000101111111 Q
#354
1%
b11000111100011 5
#355
b11000111100100 5
b10000110000000 Q
#356
b11000111100101 5
#357
b11000111100110 5
#358
0&
b11000111100111 5
#359
0%
1&
b11000111101000 5
#360
1%
b11 3
b11000111101001 5
b10000110000001 Q
#361
b1 3
b11000111101010 5
b10000110000010 Q
#362
b11000111101011 5
#363
0&
b11000111101100 5
#364
0%
1&
b11000111101101 5
#365
1%
b11000111101110 5
b10000110000011 Q
#366
b11000111101111 5
b10000110000100 Q
#367
b11000111110000 5
#368
0&
b11000111110001 5
#369
0%
1&
b11000111110010 5
#370
1%
b0 1
b0 3
b11000111110011 5
b10000110000101 Q
#371
b11 1
b1 3
b11000111110100 5
b10000110000110 Q
#372
b11000111110101 5
#373
0&
b11000111110110 5
#374
0%
b11000111110111 5
#375
1&
b11000111111000 5
b10000110000111 Q
#376
1%
0&
b11000111111001 5
#377
0%
1&
b11000111111010 5
b10000110001000 Q
#378
1%
b11000111111011 5
b10000110001001 Q
#379
0&
b11000111111100 5
b10000110001010 Q
#380
0%
1&
b11 3
b11000111111101 5
#381
1%
0&
b1 3
b11000111111110 5
b10000110001011 Q
#382
0%
b11000111111111 5
b10000110001100 Q
#383
1&
b11001000000000 5
b10000110001101 Q
#384
1%
0&
b11001000000001 5
#385
0%
1&
b11001000000010 5
b10000110001110 Q
#386
1%
0&
b11001000000011 5
b10000110001111 Q
#387
0%
1&
b11001000000100 5
b10000110010000 Q
#388
1%
0&
b11001000000101 5
b10000110010001 Q
#389
0%
b11001000000110 5
b10000110010010 Q
#390
1&
b0 1
b0 3
b11001000000111 5
b10000110010011 Q
#391
1%
0&
b11 1
b1 3
b11001000001000 5
#392
0%
1&
b11001000001001 5
b10000110010100 Q
#393
1%
b11001000001010 5
b10000110010101 Q
#394
0&
b11001000001011 5
b10000110010110 Q
#395
0%
1&
b11001000001100 5
#396
1%
0&
b11001000001101 5
b10000110010111 Q
#397
0%
b11001000001110 5
b10000110011000 Q
#398
1&
b11001000001111 5
b10000110011001 Q
#399
1%
0&
b11001000010000 5
#400
0%
1&
b11 3
b11001000010001 5
b10000110011010 Q
#401
1%
0&
b1 3
b11001000010010 5
b10000110011011 Q
#402
0%
1&
b11001000010011 5
b10000110011100 Q
#403
1%
b11001000010100 5
b10000110011101 Q
#404
0&
b11001000010101 5
b10000110011110 Q
#405
0%
1&
b11001000010110 5
#406
1%
0&
b11001000010111 5
b10000110011111 Q
#407
0%
b11001000011000 5
b10000110100000 Q
#408
1&
b11001000011001 5
b10000110100001 Q
#409
1%
0&
b11001000011010 5
#410
0%
1&
b0 1
b0 3
b11001000011011 5
b10000110100010 Q
#411
1%
0&
b11 1
b1 3
b11001000011100 5
b10000110100011 Q
#412
0%
b11001000011101 5
b10000110100100 Q
#413
1&
b11001000011110 5
b10000110100101 Q
#414
1%
0&
b11001000011111 5
#415
0%
1&
b11001000100000 5
b10000110100110 Q
#416
1%
0&
b11001000100001 5
b10000110100111 Q
#417
0%
1&
b11001000100010 5
b10000110101000 Q
#418
1%
b11001000100011 5
b10000110101001 Q
#419
0&
b11001000100100 5
b10000110101010 Q
#420
0%
1&
b11 3
b11001000100101 5
#421
1%
0&
b1 3
b11001000100110 5
b10000110101011 Q
#422
0%
b11001000100111 5
b10000110101100 Q
#423
1&
b11001000101000 5
b10000110101101 Q
#424
1%
0&
b11001000101001 5
#425
0%
1&
b11001000101010 5
b10000110101110 Q
#426
1%
0&
b11001000101011 5
b10000110101111 Q
#427
0%
1&
b11001000101100 5
b10000110110000 Q
#428
1%
b11001000101101 5
b10000110110001 Q
#429
0&
b11001000101110 5
b10000110110010 Q
#430
0%
1&
b0 1
b0 3
b11001000101111 5
#431
1%
0&
b11 1
b1 3
b11001000110000 5
b10000110110011 Q
#432
0%
1&
b11001000110001 5
b10000110110100 Q
#433
1%
0&
b11001000110010 5
b10000110110101 Q
#434
0%
1&
b11001000110011 5
b10000110110110 Q
#435
1%
b11001000110100 5
b10000110110111 Q
#436
b11001000110101 5
b10000110111000 Q
#437
b11001000110110 5
#438
0&
b11001000110111 5
#439
0%
b11001000111000 5
#440
1&
b11 3
b11001000111001 5
b10000110111001 Q
#441
1%
0&
b1 3
b11001000111010 5
#442
0%
1&
b11001000111011 5
b10000110111010 Q
#443
1%
b11001000111100 5
b10000110111011 Q
#444
0&
b11001000111101 5
b10000110111100 Q
#445
0%
1&
b11001000111110 5
#446
1%
0&
b11001000111111 5
b10000110111101 Q
#447
0%
1&
b11001001000000 5
b10000110111110 Q
#448
1%
0&
b11001001000001 5
b10000110111111 Q
#449
0%
b11001001000010 5
b10000111000000 Q
#450
1&
b0 1
b0 3
b11001001000011 5
b10000111000001 Q
#451
1%
0&
b11 1
b1 3
b11001001000100 5
#452
0%
1&
b11001001000101 5
b10000111000010 Q
#453
1%
b11001001000110 5
b10000111000011 Q
#454
0&
b11001001000111 5
b10000111000100 Q
#455
0%
1&
b11001001001000 5
#456
1%
0&
b11001001001001 5
b10000111000101 Q
#457
0%
b11001001001010 5
b10000111000110 Q
#458
1&
b11001001001011 5
b10000111000111 Q
#459
1%
b11001001001100 5
#460
b11 3
b11001001001101 5
b10000111001000 Q
#461
b1 3
b11001001001110 5
#462
b11001001001111 5
#463
0&
b11001001010000 5
#464
0%
b11001001010001 5
#465
1&
b11001001010010 5
b10000111001001 Q
#466
1%
0&
b11001001010011 5
#467
0%
1&
b11001001010100 5
b10000111001010 Q
#468
1%
0&
b11001001010101 5
b10000111001011 Q
#469
0%
b11001001010110 5
b10000111001100 Q
#470
1&
b0 1
b0 3
b11001001010111 5
b10000111001101 Q
#471
1%
0&
b11 1
b1 3
b11001001011000 5
#472
0%
b11001001011001 5
b10000111001110 Q
#473
1&
b11001001011010 5
b10000111001111 Q
#474
1%
0&
b11001001011011 5
#475
0%
1&
b11001001011100 5
b10000111010000 Q
#476
1%
0&
b11001001011101 5
b10000111010001 Q
#477
0%
1&
b11001001011110 5
b10000111010010 Q
#478
1%
0&
b11001001011111 5
b10000111010011 Q
#479
0%
b11001001100000 5
b10000111010100 Q
#480
1&
b11 3
b11001001100001 5
b10000111010101 Q
#481
1%
0&
b1 3
b11001001100010 5
#482
0%
1&
b11001001100011 5
b10000111010110 Q
#483
1%
b11001001100100 5
b10000111010111 Q
#484
0&
b11001001100101 5
b10000111011000 Q
#485
0%
1&
b11001001100110 5
#486
1%
0&
b11001001100111 5
b10000111011001 Q
#487
0%
b11001001101000 5
b10000111011010 Q
#488
1&
b11001001101001 5
b10000111011011 Q
#489
1%
b11001001101010 5
#490
b0 1
b0 3
b11001001101011 5
b10000111011100 Q
#491
b11 1
b1 3
b11001001101100 5
#492
b11001001101101 5
#493
0&
b11001001101110 5
#494
0%
b11001001101111 5
#495
1&
b11001001110000 5
b10000111011101 Q
#496
1%
0&
b11001001110001 5
#497
0%
1&
b11001001110010 5
b10000111011110 Q
#498
1%
b11001001110011 5
b10000111011111 Q
#499
0&
b11001001110100 5
b10000111100000 Q
#500
0%
1&
b11 3
b11001001110101 5
#501
1%
0&
b1 3
b11001001110110 5
b10000111100001 Q
#502
0%
b11001001110111 5
b10000111100010 Q
#503
1&
b11001001111000 5
b10000111100011 Q
#504
1%
0&
b11001001111001 5
#505
0%
1&
b11001001111010 5
b10000111100100 Q
#506
1%
0&
b11001001111011 5
b10000111100101 Q
#507
0%
1&
b11001001111100 5
b10000111100110 Q
#508
1%
0&
b11001001111101 5
b10000111100111 Q
#509
0%
b11001001111110 5
b10000111101000 Q
#510
1&
b0 1
b0 3
b11001001111111 5
b10000111101001 Q
#511
1%
0&
b11 1
b1 3
b11001010000000 5
#512
0%
1&
b11001010000001 5
b10000111101010 Q
#513
1%
b11001010000010 5
b10000111101011 Q
#514
0&
b11001010000011 5
b10000111101100 Q
#515
0%
1&
b11001010000100 5
#516
1%
0&
b11001010000101 5
b10000111101101 Q
#517
0%
b11001010000110 5
b10000111101110 Q
#518
1&
b11001010000111 5
b10000111101111 Q
#519
1%
b11001010001000 5
#520
b11 3
b11001010001001 5
b10000111110000 Q
#521
b1 3
b11001010001010 5
#522
b11001010001011 5
#523
0&
b11001010001100 5
#524
0%
b11001010001101 5
#525
1&
b11001010001110 5
b10000111110001 Q
#526
1%
0&
b11001010001111 5
#527
0%
1&
b11001010010000 5
b10000111110010 Q
#528
1%
0&
b11001010010001 5
b10000111110011 Q
#529
0%
b11001010010010 5
b10000111110100 Q
#530
1&
b0 1
b0 3
b11001010010011 5
b10000111110101 Q
#531
1%
0&
b11 1
b1 3
b11001010010100 5
#532
0%
b11001010010101 5
b10000111110110 Q
#533
1&
b11001010010110 5
b10000111110111 Q
#534
1%
b11001010010111 5
#535
b11001010011000 5
b10000111111000 Q
#536
b11001010011001 5
#537
b11001010011010 5
#538
0&
b11001010011011 5
#539
0%
b11001010011100 5
#540
1&
b11 3
b11001010011101 5
b10000111111001 Q
#541
1%
0&
b1 3
b11001010011110 5
#542
0%
1&
b11001010011111 5
b10000111111010 Q
#543
1%
b11001010100000 5
b10000111111011 Q
#544
0&
b11001010100001 5
b10000111111100 Q
#545
0%
1&
b11001010100010 5
#546
1%
0&
b11001010100011 5
b10000111111101 Q
#547
0%
b11001010100100 5
b10000111111110 Q
#548
1&
b11001010100101 5
b10000111111111 Q
#549
1%
0&
b11001010100110 5
#550
0%
1&
b0 1
b0 3
b11001010100111 5
b10001000000000 Q
#551
1%
0&
b11 1
b1 3
b11001010101000 5
b10001000000001 Q
#552
0%
b11001010101001 5
b10001000000010 Q
#553
1&
b11001010101010 5
b10001000000011 Q
#554
1%
0&
b11001010101011 5
#555
0%
1&
b11001010101100 5
b10001000000100 Q
#556
1%
0&
b11001010101101 5
b10001000000101 Q
#557
0%
1&
b11001010101110 5
b10001000000110 Q
#558
1%
b11001010101111 5
b10001000000111 Q
#559
0&
b11001010110000 5
b10001000001000 Q
#560
0%
1&
b11 3
b11001010110001 5
#561
1%
0&
b1 3
b11001010110010 5
b10001000001001 Q
#562
0%
b11001010110011 5
b10001000001010 Q
#563
1&
b11001010110100 5
b10001000001011 Q
#564
1%
0&
b11001010110101 5
#565
0%
1&
b11001010110110 5
b10001000001100 Q
#566
1%
0&
b11001010110111 5
b10001000001101 Q
#567
0%
1&
b11001010111000 5
b10001000001110 Q
#568
1%
0&
b11001010111001 5
b10001000001111 Q
#569
0%
b11001010111010 5
b10001000010000 Q
#570
1&
b0 1
b0 3
b11001010111011 5
b10001000010001 Q
#571
1%
0&
b11 1
b1 3
b11001010111100 5
#572
0%
1&
b11001010111101 5
b10001000010010 Q
#573
1%
b11001010111110 5
b10001000010011 Q
#574
0&
b11001010111111 5
b10001000010100 Q
#575
0%
1&
b11001011000000 5
#576
1%
0&
b11001011000001 5
b10001000010101 Q
#577
0%
b11001011000010 5
b10001000010110 Q
#578
1&
b11001011000011 5
b10001000010111 Q
#579
1%
b11001011000100 5
#580
b11 3
b11001011000101 5
b10001000011000 Q
#581
b1 3
b11001011000110 5
#582
b11001011000111 5
#583
0&
b11001011001000 5
#584
0%
b11001011001001 5
#585
1&
b11001011001010 5
b10001000011001 Q
#586
1%
0&
b11001011001011 5
#587
0%
1&
b11001011001100 5
b10001000011010 Q
#588
1%
0&
b11001011001101 5
b10001000011011 Q
#589
0%
1&
b11001011001110 5
b10001000011100 Q
#590
1%
b0 1
b0 3
b11001011001111 5
b10001000011101 Q
#591
b11 1
b1 3
b11001011010000 5
b10001000011110 Q
#592
b11001011010001 5
#593
0&
b11001011010010 5
#594
0%
b11001011010011 5
#595
1&
b11001011010100 5
b10001000011111 Q
#596
1%
0&
b11001011010101 5
#597
0%
1&
b11001011010110 5
b10001000100000 Q
#598
1%
0&
b11001011010111 5
b10001000100001 Q
#599
0%
b11001011011000 5
b10001000100010 Q
#600
1&
b11 3
b11001011011001 5
b10001000100011 Q
#601
1%
0&
b1 3
b11001011011010 5
#602
0%
1&
b11001011011011 5
b10001000100100 Q
#603
1%
b11001011011100 5
b10001000100101 Q
